Midterm
…
#Conduct some basic data cleaning to make your data file look like the following. Filter for only student groups coded as "White" or "Hispanic/Latino". Select variables related to the number of students in each of the levels (1:4), and not percentages or collapsed levels. Remove any row that has missing data in any of the n variables.

data <- data %>% 
  clean_names() %>% 
  filter(student_group == "White" | student_group == "Hispanic/Latino") %>% 
  select(academic_year, district, school, student_group, grade_level, number_level_1, number_level_2, number_level_3, number_level_4)

gathered1 <- data %>% 
  gather(level, n, 6:9) %>% 
  filter(!is.na(n)) %>% 
  mutate(level = parse_number(level)) %>% 
  arrange(academic_year, district, student_group, grade_level)
gathered1

## # A tibble: 90,576 x 7
##    academic_year district  school     student_group grade_level level     n
##    <chr>         <chr>     <chr>      <chr>         <chr>       <dbl> <dbl>
##  1 2014-2015     Adrian S Adrian El Hispanic/Lat Grade 3         1     2
##  2 2014-2015     Adrian S Adrian El Hispanic/Lat Grade 3         2     1
##  3 2014-2015     Adrian S Adrian El Hispanic/Lat Grade 3         3     2
##  4 2014-2015     Adrian S Adrian El Hispanic/Lat Grade 3         4     1
##  5 2014-2015     Adrian S Adrian El Hispanic/Lat Grade 6         1     2
##  6 2014-2015     Adrian S Adrian El Hispanic/Lat Grade 6         2     3
##  7 2014-2015     Adrian S Adrian El Hispanic/Lat Grade 6         3     2
##  8 2014-2015     Adrian S Adrian El Hispanic/Lat Grade 6         4     0
##  9 2014-2015     Adrian S Adrian El Hispanic/Lat Grade 7         1     2
## 10 2014-2015     Adrian S Adrian El Hispanic/Lat Grade 7         2     2
## #  with 90,566 more rows

#Question A.2: Calculate the cumulative n for each school by student group, grade, and academic year. 

gathered2 <- gathered1 %>%
  group_by(school, student_group, grade_level, academic_year) %>% 
  mutate(cn = cumsum(n))
gathered2

## # A tibble: 90,576 x 8
## # Groups:   school, student_group, grade_level, academic_year [21,921]
##    academic_year district school student_group grade_level level     n
##    <chr>         <chr>    <chr>  <chr>         <chr>       <dbl> <dbl>
##  1 2014-2015     Adrian  Adria Hispanic/Lat Grade 3         1     2
##  2 2014-2015     Adrian  Adria Hispanic/Lat Grade 3         2     1
##  3 2014-2015     Adrian  Adria Hispanic/Lat Grade 3         3     2
##  4 2014-2015     Adrian  Adria Hispanic/Lat Grade 3         4     1
##  5 2014-2015     Adrian  Adria Hispanic/Lat Grade 6         1     2
##  6 2014-2015     Adrian  Adria Hispanic/Lat Grade 6         2     3
##  7 2014-2015     Adrian  Adria Hispanic/Lat Grade 6         3     2
##  8 2014-2015     Adrian  Adria Hispanic/Lat Grade 6         4     0
##  9 2014-2015     Adrian  Adria Hispanic/Lat Grade 7         1     2
## 10 2014-2015     Adrian  Adria Hispanic/Lat Grade 7         2     2
## #  with 90,566 more rows, and 1 more variable: cn <dbl>
…
#Question A.3: Reformat the data so it looks like the below, removing n and filling by cn. Remove rows that have missing data for either student group.

gathered3 <- gathered2 %>%
  select(-n) %>% 
  spread(student_group, cn) %>% 
  clean_names() %>%
  filter(!is.na(hispanic_latino)) %>% 
  filter(!is.na(white))
gathered3

## # A tibble: 33,948 x 7
## # Groups:   school, grade_level, academic_year [8,217]
##    academic_year district  school   grade_level level hispanic_latino white
##    <chr>         <chr>     <chr>    <chr>       <dbl>           <dbl> <dbl>
##  1 2014-2015     Adrian S Adrian  Grade 3         1               2     0
##  2 2014-2015     Adrian S Adrian  Grade 3         2               3     4
##  3 2014-2015     Adrian S Adrian  Grade 3         3               5     7
##  4 2014-2015     Adrian S Adrian  Grade 3         4               6    11
##  5 2014-2015     Adrian S Adrian  Grade 6         1               2     0
##  6 2014-2015     Adrian S Adrian  Grade 6         2               5     3
##  7 2014-2015     Adrian S Adrian  Grade 6         3               7     8
##  8 2014-2015     Adrian S Adrian  Grade 6         4               7     9
##  9 2014-2015     Adrian S Adrian  Grade 7         1               2     3
## 10 2014-2015     Adrian S Adrian  Grade 7         2               4     5
## #  with 33,938 more rows
…
